2007.09.22 17:35 B C:\Documents and Settings\Dusty.ALLISON\Desktop\uccc\From Ronald\UCCC_New\tourguide\x2023\00exteriorfront141.jpg --> 216.95.249.22 /public_html/newuccc/tourguide/x2023 00exteriorfront141.jpg
2007.09.22 17:35 B C:\Documents and Settings\Dusty.ALLISON\Desktop\uccc\From Ronald\UCCC_New\tourguide\x2023\01exteriorfront107.jpg --> 216.95.249.22 /public_html/newuccc/tourguide/x2023 01exteriorfront107.jpg
2007.09.22 17:35 B C:\Documents and Settings\Dusty.ALLISON\Desktop\uccc\From Ronald\UCCC_New\tourguide\x2023\02lobby6.jpg --> 216.95.249.22 /public_html/newuccc/tourguide/x2023 02lobby6.jpg
2007.09.22 17:35 B C:\Documents and Settings\Dusty.ALLISON\Desktop\uccc\From Ronald\UCCC_New\tourguide\x2023\03lobby13.jpg --> 216.95.249.22 /public_html/newuccc/tourguide/x2023 03lobby13.jpg
2007.09.22 17:35 B C:\Documents and Settings\Dusty.ALLISON\Desktop\uccc\From Ronald\UCCC_New\tourguide\x2023\04ramp.jpg --> 216.95.249.22 /public_html/newuccc/tourguide/x2023 04ramp.jpg
2007.09.22 17:35 B C:\Documents and Settings\Dusty.ALLISON\Desktop\uccc\From Ronald\UCCC_New\tourguide\x2023\05reception.jpg --> 216.95.249.22 /public_html/newuccc/tourguide/x2023 05reception.jpg
2007.09.22 17:35 B C:\Documents and Settings\Dusty.ALLISON\Desktop\uccc\From Ronald\UCCC_New\tourguide\x2023\06hall.jpg --> 216.95.249.22 /public_html/newuccc/tourguide/x2023 06hall.jpg
2007.09.22 17:35 B C:\Documents and Settings\Dusty.ALLISON\Desktop\uccc\From Ronald\UCCC_New\tourguide\x2023\07hall.jpg --> 216.95.249.22 /public_html/newuccc/tourguide/x2023 07hall.jpg
2007.09.22 17:35 B C:\Documents and Settings\Dusty.ALLISON\Desktop\uccc\From Ronald\UCCC_New\tourguide\x2023\08hall.jpg --> 216.95.249.22 /public_html/newuccc/tourguide/x2023 08hall.jpg
2007.09.22 17:35 B C:\Documents and Settings\Dusty.ALLISON\Desktop\uccc\From Ronald\UCCC_New\tourguide\x2023\09hall.jpg --> 216.95.249.22 /public_html/newuccc/tourguide/x2023 09hall.jpg
2007.09.22 17:35 B C:\Documents and Settings\Dusty.ALLISON\Desktop\uccc\From Ronald\UCCC_New\tourguide\x2023\11hall3.jpg --> 216.95.249.22 /public_html/newuccc/tourguide/x2023 11hall3.jpg
2007.09.22 17:35 B C:\Documents and Settings\Dusty.ALLISON\Desktop\uccc\From Ronald\UCCC_New\tourguide\x2023\12hall.jpg --> 216.95.249.22 /public_html/newuccc/tourguide/x2023 12hall.jpg
2007.09.22 17:35 B C:\Documents and Settings\Dusty.ALLISON\Desktop\uccc\From Ronald\UCCC_New\tourguide\x2023\12hall2.jpg --> 216.95.249.22 /public_html/newuccc/tourguide/x2023 12hall2.jpg
2007.09.22 17:36 B C:\Documents and Settings\Dusty.ALLISON\Desktop\uccc\From Ronald\UCCC_New\tourguide\x2023\16stairs3.jpg --> 216.95.249.22 /public_html/newuccc/tourguide/x2023 16stairs3.jpg
2007.09.22 17:36 B C:\Documents and Settings\Dusty.ALLISON\Desktop\uccc\From Ronald\UCCC_New\tourguide\x2023\17stairs2.jpg --> 216.95.249.22 /public_html/newuccc/tourguide/x2023 17stairs2.jpg
2007.09.22 17:36 B C:\Documents and Settings\Dusty.ALLISON\Desktop\uccc\From Ronald\UCCC_New\tourguide\x2023\17stairs3.jpg --> 216.95.249.22 /public_html/newuccc/tourguide/x2023 17stairs3.jpg
2007.09.22 17:36 B C:\Documents and Settings\Dusty.ALLISON\Desktop\uccc\From Ronald\UCCC_New\tourguide\x2023\18hall.jpg --> 216.95.249.22 /public_html/newuccc/tourguide/x2023 18hall.jpg
2007.09.22 17:36 B C:\Documents and Settings\Dusty.ALLISON\Desktop\uccc\From Ronald\UCCC_New\tourguide\x2023\18hall2.jpg --> 216.95.249.22 /public_html/newuccc/tourguide/x2023 18hall2.jpg
2007.09.22 17:36 B C:\Documents and Settings\Dusty.ALLISON\Desktop\uccc\From Ronald\UCCC_New\tourguide\x2023\19hall1.jpg --> 216.95.249.22 /public_html/newuccc/tourguide/x2023 19hall1.jpg
2007.09.22 17:36 B C:\Documents and Settings\Dusty.ALLISON\Desktop\uccc\From Ronald\UCCC_New\tourguide\x2023\24fishpond.jpg --> 216.95.249.22 /public_html/newuccc/tourguide/x2023 24fishpond.jpg
2007.09.22 17:36 B C:\Documents and Settings\Dusty.ALLISON\Desktop\uccc\From Ronald\UCCC_New\tourguide\x2023\25fishtank.jpg --> 216.95.249.22 /public_html/newuccc/tourguide/x2023 25fishtank.jpg
2007.09.22 17:36 B C:\Documents and Settings\Dusty.ALLISON\Desktop\uccc\From Ronald\UCCC_New\tourguide\x2023\26librarywithinternetaccess.jpg --> 216.95.249.22 /public_html/newuccc/tourguide/x2023 26librarywithinternetaccess.jpg
2007.09.22 17:36 B C:\Documents and Settings\Dusty.ALLISON\Desktop\uccc\From Ronald\UCCC_New\tourguide\x2023\28chapel.jpg --> 216.95.249.22 /public_html/newuccc/tourguide/x2023 28chapel.jpg
2007.09.22 17:36 B C:\Documents and Settings\Dusty.ALLISON\Desktop\uccc\From Ronald\UCCC_New\tourguide\x2023\29chapel.jpg --> 216.95.249.22 /public_html/newuccc/tourguide/x2023 29chapel.jpg
2007.09.22 17:36 B C:\Documents and Settings\Dusty.ALLISON\Desktop\uccc\From Ronald\UCCC_New\tourguide\x2023\31chapel.jpg --> 216.95.249.22 /public_html/newuccc/tourguide/x2023 31chapel.jpg
2007.09.22 17:36 B C:\Documents and Settings\Dusty.ALLISON\Desktop\uccc\From Ronald\UCCC_New\tourguide\x2023\31chapel2.jpg --> 216.95.249.22 /public_html/newuccc/tourguide/x2023 31chapel2.jpg
2007.09.22 17:36 B C:\Documents and Settings\Dusty.ALLISON\Desktop\uccc\From Ronald\UCCC_New\tourguide\x2023\32chapel.jpg --> 216.95.249.22 /public_html/newuccc/tourguide/x2023 32chapel.jpg
2007.09.22 17:37 B C:\Documents and Settings\Dusty.ALLISON\Desktop\uccc\From Ronald\UCCC_New\tourguide\x2023\32chapel2.jpg --> 216.95.249.22 /public_html/newuccc/tourguide/x2023 32chapel2.jpg
2007.09.22 17:37 B C:\Documents and Settings\Dusty.ALLISON\Desktop\uccc\From Ronald\UCCC_New\tourguide\x2023\33chapel1.jpg --> 216.95.249.22 /public_html/newuccc/tourguide/x2023 33chapel1.jpg
2007.09.22 17:37 B C:\Documents and Settings\Dusty.ALLISON\Desktop\uccc\From Ronald\UCCC_New\tourguide\x2023\34chapel.jpg --> 216.95.249.22 /public_html/newuccc/tourguide/x2023 34chapel.jpg
2007.09.22 17:37 B C:\Documents and Settings\Dusty.ALLISON\Desktop\uccc\From Ronald\UCCC_New\tourguide\x2023\36chapel.jpg --> 216.95.249.22 /public_html/newuccc/tourguide/x2023 36chapel.jpg
2007.09.22 17:37 B C:\Documents and Settings\Dusty.ALLISON\Desktop\uccc\From Ronald\UCCC_New\tourguide\x2023\37chapel.jpg --> 216.95.249.22 /public_html/newuccc/tourguide/x2023 37chapel.jpg
2007.09.22 17:37 B C:\Documents and Settings\Dusty.ALLISON\Desktop\uccc\From Ronald\UCCC_New\tourguide\x2023\38chapel.jpg --> 216.95.249.22 /public_html/newuccc/tourguide/x2023 38chapel.jpg
2007.09.22 17:37 B C:\Documents and Settings\Dusty.ALLISON\Desktop\uccc\From Ronald\UCCC_New\tourguide\x2023\39giftshop.jpg --> 216.95.249.22 /public_html/newuccc/tourguide/x2023 39giftshop.jpg
2007.09.22 17:37 B C:\Documents and Settings\Dusty.ALLISON\Desktop\uccc\From Ronald\UCCC_New\tourguide\x2023\40hall.jpg --> 216.95.249.22 /public_html/newuccc/tourguide/x2023 40hall.jpg
2007.09.22 17:37 B C:\Documents and Settings\Dusty.ALLISON\Desktop\uccc\From Ronald\UCCC_New\tourguide\x2023\41diningroom22.jpg --> 216.95.249.22 /public_html/newuccc/tourguide/x2023 41diningroom22.jpg
2007.09.22 17:37 B C:\Documents and Settings\Dusty.ALLISON\Desktop\uccc\From Ronald\UCCC_New\tourguide\x2023\44diningroom14.jpg --> 216.95.249.22 /public_html/newuccc/tourguide/x2023 44diningroom14.jpg
2007.09.22 17:37 B C:\Documents and Settings\Dusty.ALLISON\Desktop\uccc\From Ronald\UCCC_New\tourguide\x2023\46diningroom6.jpg --> 216.95.249.22 /public_html/newuccc/tourguide/x2023 46diningroom6.jpg
2007.09.22 17:37 B C:\Documents and Settings\Dusty.ALLISON\Desktop\uccc\From Ronald\UCCC_New\tourguide\x2023\47diningroom6.jpg --> 216.95.249.22 /public_html/newuccc/tourguide/x2023 47diningroom6.jpg
2007.09.22 17:37 B C:\Documents and Settings\Dusty.ALLISON\Desktop\uccc\From Ronald\UCCC_New\tourguide\x2023\49lounge.jpg --> 216.95.249.22 /public_html/newuccc/tourguide/x2023 49lounge.jpg
2007.09.22 17:38 B C:\Documents and Settings\Dusty.ALLISON\Desktop\uccc\From Ronald\UCCC_New\tourguide\x2023\50lounge1.jpg --> 216.95.249.22 /public_html/newuccc/tourguide/x2023 50lounge1.jpg
2007.09.22 17:38 B C:\Documents and Settings\Dusty.ALLISON\Desktop\uccc\From Ronald\UCCC_New\tourguide\x2023\51activityroom2.jpg --> 216.95.249.22 /public_html/newuccc/tourguide/x2023 51activityroom2.jpg
2007.09.22 17:38 B C:\Documents and Settings\Dusty.ALLISON\Desktop\uccc\From Ronald\UCCC_New\tourguide\x2023\52activityroom2.jpg --> 216.95.249.22 /public_html/newuccc/tourguide/x2023 52activityroom2.jpg
2007.09.22 17:38 B C:\Documents and Settings\Dusty.ALLISON\Desktop\uccc\From Ronald\UCCC_New\tourguide\x2023\53activityroom.jpg --> 216.95.249.22 /public_html/newuccc/tourguide/x2023 53activityroom.jpg
2007.09.22 17:38 B C:\Documents and Settings\Dusty.ALLISON\Desktop\uccc\From Ronald\UCCC_New\tourguide\x2023\54nursingcentreateachfloor.jpg --> 216.95.249.22 /public_html/newuccc/tourguide/x2023 54nursingcentreateachfloor.jpg
2007.09.22 17:38 B C:\Documents and Settings\Dusty.ALLISON\Desktop\uccc\From Ronald\UCCC_New\tourguide\x2023\55courtyard.jpg --> 216.95.249.22 /public_html/newuccc/tourguide/x2023 55courtyard.jpg
2007.09.22 17:38 B C:\Documents and Settings\Dusty.ALLISON\Desktop\uccc\From Ronald\UCCC_New\tourguide\x2023\56courtyard.jpg --> 216.95.249.22 /public_html/newuccc/tourguide/x2023 56courtyard.jpg
2007.09.22 17:38 B C:\Documents and Settings\Dusty.ALLISON\Desktop\uccc\From Ronald\UCCC_New\tourguide\x2023\57courtyard.jpg --> 216.95.249.22 /public_html/newuccc/tourguide/x2023 57courtyard.jpg
2007.09.22 17:38 B C:\Documents and Settings\Dusty.ALLISON\Desktop\uccc\From Ronald\UCCC_New\tourguide\x2023\58courtyard.jpg --> 216.95.249.22 /public_html/newuccc/tourguide/x2023 58courtyard.jpg
2007.09.22 17:38 B C:\Documents and Settings\Dusty.ALLISON\Desktop\uccc\From Ronald\UCCC_New\tourguide\x2023\60patio.jpg --> 216.95.249.22 /public_html/newuccc/tourguide/x2023 60patio.jpg
2007.09.22 17:38 B C:\Documents and Settings\Dusty.ALLISON\Desktop\uccc\From Ronald\UCCC_New\tourguide\x2023\61patio.jpg --> 216.95.249.22 /public_html/newuccc/tourguide/x2023 61patio.jpg
2007.09.22 17:38 B C:\Documents and Settings\Dusty.ALLISON\Desktop\uccc\From Ronald\UCCC_New\tourguide\x2023\61patio2.jpg --> 216.95.249.22 /public_html/newuccc/tourguide/x2023 61patio2.jpg
2007.09.22 17:38 B C:\Documents and Settings\Dusty.ALLISON\Desktop\uccc\From Ronald\UCCC_New\tourguide\x2023\62patio.jpg --> 216.95.249.22 /public_html/newuccc/tourguide/x2023 62patio.jpg
2007.09.22 17:38 B C:\Documents and Settings\Dusty.ALLISON\Desktop\uccc\From Ronald\UCCC_New\tourguide\x2023\63patio.jpg --> 216.95.249.22 /public_html/newuccc/tourguide/x2023 63patio.jpg
2007.09.22 17:39 B C:\Documents and Settings\Dusty.ALLISON\Desktop\uccc\From Ronald\UCCC_New\tourguide\x2023\64patio.jpg --> 216.95.249.22 /public_html/newuccc/tourguide/x2023 64patio.jpg
2007.09.22 17:39 B C:\Documents and Settings\Dusty.ALLISON\Desktop\uccc\From Ronald\UCCC_New\tourguide\x2023\65backyard.jpg --> 216.95.249.22 /public_html/newuccc/tourguide/x2023 65backyard.jpg
2007.09.22 17:39 B C:\Documents and Settings\Dusty.ALLISON\Desktop\uccc\From Ronald\UCCC_New\tourguide\x2023\background.jpg --> 216.95.249.22 /public_html/newuccc/tourguide/x2023 background.jpg
2007.09.22 17:39 B C:\Documents and Settings\Dusty.ALLISON\Desktop\uccc\From Ronald\UCCC_New\tourguide\x2023\bbbb.htm --> 216.95.249.22 /public_html/newuccc/tourguide/x2023 bbbb.htm
2007.09.22 17:39 B C:\Documents and Settings\Dusty.ALLISON\Desktop\uccc\From Ronald\UCCC_New\tourguide\x2023\featuresheet.htm --> 216.95.249.22 /public_html/newuccc/tourguide/x2023 featuresheet.htm
2007.09.22 17:39 B C:\Documents and Settings\Dusty.ALLISON\Desktop\uccc\From Ronald\UCCC_New\tourguide\x2023\featuresheet2.htm --> 216.95.249.22 /public_html/newuccc/tourguide/x2023 featuresheet2.htm
2007.09.22 17:39 B C:\Documents and Settings\Dusty.ALLISON\Desktop\uccc\From Ronald\UCCC_New\tourguide\x2023\index.htm --> 216.95.249.22 /public_html/newuccc/tourguide/x2023 index.htm
2007.09.22 17:39 B C:\Documents and Settings\Dusty.ALLISON\Desktop\uccc\From Ronald\UCCC_New\tourguide\x2023\index2.htm --> 216.95.249.22 /public_html/newuccc/tourguide/x2023 index2.htm
2007.09.22 17:39 B C:\Documents and Settings\Dusty.ALLISON\Desktop\uccc\From Ronald\UCCC_New\tourguide\x2023\indexpan1fast.htm --> 216.95.249.22 /public_html/newuccc/tourguide/x2023 indexpan1fast.htm
2007.09.22 17:39 B C:\Documents and Settings\Dusty.ALLISON\Desktop\uccc\From Ronald\UCCC_New\tourguide\x2023\indexpan1medium.htm --> 216.95.249.22 /public_html/newuccc/tourguide/x2023 indexpan1medium.htm
2007.09.22 17:39 B C:\Documents and Settings\Dusty.ALLISON\Desktop\uccc\From Ronald\UCCC_New\tourguide\x2023\indexpan1slow.htm --> 216.95.249.22 /public_html/newuccc/tourguide/x2023 indexpan1slow.htm
2007.09.22 17:39 B C:\Documents and Settings\Dusty.ALLISON\Desktop\uccc\From Ronald\UCCC_New\tourguide\x2023\indexpan2fast.htm --> 216.95.249.22 /public_html/newuccc/tourguide/x2023 indexpan2fast.htm
2007.09.22 17:39 B C:\Documents and Settings\Dusty.ALLISON\Desktop\uccc\From Ronald\UCCC_New\tourguide\x2023\indexpan2medium.htm --> 216.95.249.22 /public_html/newuccc/tourguide/x2023 indexpan2medium.htm
2007.09.22 17:39 B C:\Documents and Settings\Dusty.ALLISON\Desktop\uccc\From Ronald\UCCC_New\tourguide\x2023\indexpan2slow.htm --> 216.95.249.22 /public_html/newuccc/tourguide/x2023 indexpan2slow.htm
2007.09.22 17:39 B C:\Documents and Settings\Dusty.ALLISON\Desktop\uccc\From Ronald\UCCC_New\tourguide\x2023\indexpan3fast.htm --> 216.95.249.22 /public_html/newuccc/tourguide/x2023 indexpan3fast.htm
2007.09.22 17:39 B C:\Documents and Settings\Dusty.ALLISON\Desktop\uccc\From Ronald\UCCC_New\tourguide\x2023\indexpan3medium.htm --> 216.95.249.22 /public_html/newuccc/tourguide/x2023 indexpan3medium.htm
2007.09.22 17:39 B C:\Documents and Settings\Dusty.ALLISON\Desktop\uccc\From Ronald\UCCC_New\tourguide\x2023\indexpan3slow.htm --> 216.95.249.22 /public_html/newuccc/tourguide/x2023 indexpan3slow.htm
2007.09.22 17:39 B C:\Documents and Settings\Dusty.ALLISON\Desktop\uccc\From Ronald\UCCC_New\tourguide\x2023\indexpan4fast.htm --> 216.95.249.22 /public_html/newuccc/tourguide/x2023 indexpan4fast.htm
2007.09.22 17:39 B C:\Documents and Settings\Dusty.ALLISON\Desktop\uccc\From Ronald\UCCC_New\tourguide\x2023\indexpan4medium.htm --> 216.95.249.22 /public_html/newuccc/tourguide/x2023 indexpan4medium.htm
2007.09.22 17:39 B C:\Documents and Settings\Dusty.ALLISON\Desktop\uccc\From Ronald\UCCC_New\tourguide\x2023\indexpan4slow.htm --> 216.95.249.22 /public_html/newuccc/tourguide/x2023 indexpan4slow.htm
2007.09.22 17:39 B C:\Documents and Settings\Dusty.ALLISON\Desktop\uccc\From Ronald\UCCC_New\tourguide\x2023\indexpan5fast.htm --> 216.95.249.22 /public_html/newuccc/tourguide/x2023 indexpan5fast.htm
2007.09.22 17:39 B C:\Documents and Settings\Dusty.ALLISON\Desktop\uccc\From Ronald\UCCC_New\tourguide\x2023\indexpan5medium.htm --> 216.95.249.22 /public_html/newuccc/tourguide/x2023 indexpan5medium.htm
2007.09.22 17:39 B C:\Documents and Settings\Dusty.ALLISON\Desktop\uccc\From Ronald\UCCC_New\tourguide\x2023\indexpan5slow.htm --> 216.95.249.22 /public_html/newuccc/tourguide/x2023 indexpan5slow.htm
2007.09.22 17:39 B C:\Documents and Settings\Dusty.ALLISON\Desktop\uccc\From Ronald\UCCC_New\tourguide\x2023\indexpan6fast.htm --> 216.95.249.22 /public_html/newuccc/tourguide/x2023 indexpan6fast.htm
2007.09.22 17:39 B C:\Documents and Settings\Dusty.ALLISON\Desktop\uccc\From Ronald\UCCC_New\tourguide\x2023\indexpan6medium.htm --> 216.95.249.22 /public_html/newuccc/tourguide/x2023 indexpan6medium.htm
2007.09.22 17:39 B C:\Documents and Settings\Dusty.ALLISON\Desktop\uccc\From Ronald\UCCC_New\tourguide\x2023\indexpan6slow.htm --> 216.95.249.22 /public_html/newuccc/tourguide/x2023 indexpan6slow.htm
2007.09.22 17:39 B C:\Documents and Settings\Dusty.ALLISON\Desktop\uccc\From Ronald\UCCC_New\tourguide\x2023\indexpan7fast.htm --> 216.95.249.22 /public_html/newuccc/tourguide/x2023 indexpan7fast.htm
2007.09.22 17:39 B C:\Documents and Settings\Dusty.ALLISON\Desktop\uccc\From Ronald\UCCC_New\tourguide\x2023\indexpan7medium.htm --> 216.95.249.22 /public_html/newuccc/tourguide/x2023 indexpan7medium.htm
2007.09.22 17:39 B C:\Documents and Settings\Dusty.ALLISON\Desktop\uccc\From Ronald\UCCC_New\tourguide\x2023\indexpan7slow.htm --> 216.95.249.22 /public_html/newuccc/tourguide/x2023 indexpan7slow.htm
2007.09.22 17:39 B C:\Documents and Settings\Dusty.ALLISON\Desktop\uccc\From Ronald\UCCC_New\tourguide\x2023\indexpan8fast.htm --> 216.95.249.22 /public_html/newuccc/tourguide/x2023 indexpan8fast.htm
2007.09.22 17:39 B C:\Documents and Settings\Dusty.ALLISON\Desktop\uccc\From Ronald\UCCC_New\tourguide\x2023\indexpan8medium.htm --> 216.95.249.22 /public_html/newuccc/tourguide/x2023 indexpan8medium.htm
2007.09.22 17:39 B C:\Documents and Settings\Dusty.ALLISON\Desktop\uccc\From Ronald\UCCC_New\tourguide\x2023\indexpan8slow.htm --> 216.95.249.22 /public_html/newuccc/tourguide/x2023 indexpan8slow.htm
2007.09.22 17:39 B C:\Documents and Settings\Dusty.ALLISON\Desktop\uccc\From Ronald\UCCC_New\tourguide\x2023\indexpan9fast.htm --> 216.95.249.22 /public_html/newuccc/tourguide/x2023 indexpan9fast.htm
2007.09.22 17:39 B C:\Documents and Settings\Dusty.ALLISON\Desktop\uccc\From Ronald\UCCC_New\tourguide\x2023\indexpan9medium.htm --> 216.95.249.22 /public_html/newuccc/tourguide/x2023 indexpan9medium.htm
2007.09.22 17:39 B C:\Documents and Settings\Dusty.ALLISON\Desktop\uccc\From Ronald\UCCC_New\tourguide\x2023\indexpan9slow.htm --> 216.95.249.22 /public_html/newuccc/tourguide/x2023 indexpan9slow.htm
2007.09.22 17:39 B C:\Documents and Settings\Dusty.ALLISON\Desktop\uccc\From Ronald\UCCC_New\tourguide\x2023\listtfast.htm --> 216.95.249.22 /public_html/newuccc/tourguide/x2023 listtfast.htm
2007.09.22 17:39 B C:\Documents and Settings\Dusty.ALLISON\Desktop\uccc\From Ronald\UCCC_New\tourguide\x2023\listtmedium.htm --> 216.95.249.22 /public_html/newuccc/tourguide/x2023 listtmedium.htm
2007.09.22 17:39 B C:\Documents and Settings\Dusty.ALLISON\Desktop\uccc\From Ronald\UCCC_New\tourguide\x2023\listtslow.htm --> 216.95.249.22 /public_html/newuccc/tourguide/x2023 listtslow.htm
2007.09.22 17:39 B C:\Documents and Settings\Dusty.ALLISON\Desktop\uccc\From Ronald\UCCC_New\tourguide\x2023\mainphoto.htm --> 216.95.249.22 /public_html/newuccc/tourguide/x2023 mainphoto.htm
2007.09.22 17:39 B C:\Documents and Settings\Dusty.ALLISON\Desktop\uccc\From Ronald\UCCC_New\tourguide\x2023\mainphoto.jpg --> 216.95.249.22 /public_html/newuccc/tourguide/x2023 mainphoto.jpg
2007.09.22 17:39 B C:\Documents and Settings\Dusty.ALLISON\Desktop\uccc\From Ronald\UCCC_New\tourguide\x2023\mainphoto.php --> 216.95.249.22 /public_html/newuccc/tourguide/x2023 mainphoto.php
2007.09.22 17:39 B C:\Documents and Settings\Dusty.ALLISON\Desktop\uccc\From Ronald\UCCC_New\tourguide\x2023\pan1.ivr --> 216.95.249.22 /public_html/newuccc/tourguide/x2023 pan1.ivr
2007.09.22 17:39 B C:\Documents and Settings\Dusty.ALLISON\Desktop\uccc\From Ronald\UCCC_New\tourguide\x2023\pan1.jpg --> 216.95.249.22 /public_html/newuccc/tourguide/x2023 pan1.jpg
2007.09.22 17:39 B C:\Documents and Settings\Dusty.ALLISON\Desktop\uccc\From Ronald\UCCC_New\tourguide\x2023\pan1fast.htm --> 216.95.249.22 /public_html/newuccc/tourguide/x2023 pan1fast.htm
2007.09.22 17:39 B C:\Documents and Settings\Dusty.ALLISON\Desktop\uccc\From Ronald\UCCC_New\tourguide\x2023\pan1medium.htm --> 216.95.249.22 /public_html/newuccc/tourguide/x2023 pan1medium.htm
2007.09.22 17:39 B C:\Documents and Settings\Dusty.ALLISON\Desktop\uccc\From Ronald\UCCC_New\tourguide\x2023\pan1slow.htm --> 216.95.249.22 /public_html/newuccc/tourguide/x2023 pan1slow.htm
2007.09.22 17:39 B C:\Documents and Settings\Dusty.ALLISON\Desktop\uccc\From Ronald\UCCC_New\tourguide\x2023\pan2.ivr --> 216.95.249.22 /public_html/newuccc/tourguide/x2023 pan2.ivr
2007.09.22 17:40 B C:\Documents and Settings\Dusty.ALLISON\Desktop\uccc\From Ronald\UCCC_New\tourguide\x2023\pan2.jpg --> 216.95.249.22 /public_html/newuccc/tourguide/x2023 pan2.jpg
2007.09.22 17:40 B C:\Documents and Settings\Dusty.ALLISON\Desktop\uccc\From Ronald\UCCC_New\tourguide\x2023\pan2fast.htm --> 216.95.249.22 /public_html/newuccc/tourguide/x2023 pan2fast.htm
2007.09.22 17:40 B C:\Documents and Settings\Dusty.ALLISON\Desktop\uccc\From Ronald\UCCC_New\tourguide\x2023\pan2medium.htm --> 216.95.249.22 /public_html/newuccc/tourguide/x2023 pan2medium.htm
2007.09.22 17:40 B C:\Documents and Settings\Dusty.ALLISON\Desktop\uccc\From Ronald\UCCC_New\tourguide\x2023\pan2slow.htm --> 216.95.249.22 /public_html/newuccc/tourguide/x2023 pan2slow.htm
2007.09.22 17:40 B C:\Documents and Settings\Dusty.ALLISON\Desktop\uccc\From Ronald\UCCC_New\tourguide\x2023\pan3.ivr --> 216.95.249.22 /public_html/newuccc/tourguide/x2023 pan3.ivr
2007.09.22 17:40 B C:\Documents and Settings\Dusty.ALLISON\Desktop\uccc\From Ronald\UCCC_New\tourguide\x2023\pan3.jpg --> 216.95.249.22 /public_html/newuccc/tourguide/x2023 pan3.jpg
2007.09.22 17:40 B C:\Documents and Settings\Dusty.ALLISON\Desktop\uccc\From Ronald\UCCC_New\tourguide\x2023\pan3fast.htm --> 216.95.249.22 /public_html/newuccc/tourguide/x2023 pan3fast.htm
2007.09.22 17:40 B C:\Documents and Settings\Dusty.ALLISON\Desktop\uccc\From Ronald\UCCC_New\tourguide\x2023\pan3medium.htm --> 216.95.249.22 /public_html/newuccc/tourguide/x2023 pan3medium.htm
2007.09.22 17:40 B C:\Documents and Settings\Dusty.ALLISON\Desktop\uccc\From Ronald\UCCC_New\tourguide\x2023\pan3slow.htm --> 216.95.249.22 /public_html/newuccc/tourguide/x2023 pan3slow.htm
2007.09.22 17:40 B C:\Documents and Settings\Dusty.ALLISON\Desktop\uccc\From Ronald\UCCC_New\tourguide\x2023\pan4.ivr --> 216.95.249.22 /public_html/newuccc/tourguide/x2023 pan4.ivr
2007.09.22 17:40 B C:\Documents and Settings\Dusty.ALLISON\Desktop\uccc\From Ronald\UCCC_New\tourguide\x2023\pan4.jpg --> 216.95.249.22 /public_html/newuccc/tourguide/x2023 pan4.jpg
2007.09.22 17:40 B C:\Documents and Settings\Dusty.ALLISON\Desktop\uccc\From Ronald\UCCC_New\tourguide\x2023\pan4fast.htm --> 216.95.249.22 /public_html/newuccc/tourguide/x2023 pan4fast.htm
2007.09.22 17:40 B C:\Documents and Settings\Dusty.ALLISON\Desktop\uccc\From Ronald\UCCC_New\tourguide\x2023\pan4medium.htm --> 216.95.249.22 /public_html/newuccc/tourguide/x2023 pan4medium.htm
2007.09.22 17:40 B C:\Documents and Settings\Dusty.ALLISON\Desktop\uccc\From Ronald\UCCC_New\tourguide\x2023\pan4slow.htm --> 216.95.249.22 /public_html/newuccc/tourguide/x2023 pan4slow.htm
2007.09.22 17:40 B C:\Documents and Settings\Dusty.ALLISON\Desktop\uccc\From Ronald\UCCC_New\tourguide\x2023\pan5.ivr --> 216.95.249.22 /public_html/newuccc/tourguide/x2023 pan5.ivr
2007.09.22 17:40 B C:\Documents and Settings\Dusty.ALLISON\Desktop\uccc\From Ronald\UCCC_New\tourguide\x2023\pan5fast.htm --> 216.95.249.22 /public_html/newuccc/tourguide/x2023 pan5fast.htm
2007.09.22 17:40 B C:\Documents and Settings\Dusty.ALLISON\Desktop\uccc\From Ronald\UCCC_New\tourguide\x2023\pan5medium.htm --> 216.95.249.22 /public_html/newuccc/tourguide/x2023 pan5medium.htm
2007.09.22 17:41 B C:\Documents and Settings\Dusty.ALLISON\Desktop\uccc\From Ronald\UCCC_New\tourguide\x2023\pan5slow.htm --> 216.95.249.22 /public_html/newuccc/tourguide/x2023 pan5slow.htm
2007.09.22 17:41 B C:\Documents and Settings\Dusty.ALLISON\Desktop\uccc\From Ronald\UCCC_New\tourguide\x2023\pan6.ivr --> 216.95.249.22 /public_html/newuccc/tourguide/x2023 pan6.ivr
2007.09.22 17:41 B C:\Documents and Settings\Dusty.ALLISON\Desktop\uccc\From Ronald\UCCC_New\tourguide\x2023\pan6fast.htm --> 216.95.249.22 /public_html/newuccc/tourguide/x2023 pan6fast.htm
2007.09.22 17:41 B C:\Documents and Settings\Dusty.ALLISON\Desktop\uccc\From Ronald\UCCC_New\tourguide\x2023\pan6medium.htm --> 216.95.249.22 /public_html/newuccc/tourguide/x2023 pan6medium.htm
2007.09.22 17:41 B C:\Documents and Settings\Dusty.ALLISON\Desktop\uccc\From Ronald\UCCC_New\tourguide\x2023\pan6slow.htm --> 216.95.249.22 /public_html/newuccc/tourguide/x2023 pan6slow.htm
2007.09.22 17:41 B C:\Documents and Settings\Dusty.ALLISON\Desktop\uccc\From Ronald\UCCC_New\tourguide\x2023\pan7.ivr --> 216.95.249.22 /public_html/newuccc/tourguide/x2023 pan7.ivr
2007.09.22 17:41 B C:\Documents and Settings\Dusty.ALLISON\Desktop\uccc\From Ronald\UCCC_New\tourguide\x2023\pan7fast.htm --> 216.95.249.22 /public_html/newuccc/tourguide/x2023 pan7fast.htm
2007.09.22 17:41 B C:\Documents and Settings\Dusty.ALLISON\Desktop\uccc\From Ronald\UCCC_New\tourguide\x2023\pan7medium.htm --> 216.95.249.22 /public_html/newuccc/tourguide/x2023 pan7medium.htm
2007.09.22 17:41 B C:\Documents and Settings\Dusty.ALLISON\Desktop\uccc\From Ronald\UCCC_New\tourguide\x2023\pan7slow.htm --> 216.95.249.22 /public_html/newuccc/tourguide/x2023 pan7slow.htm
2007.09.22 17:41 B C:\Documents and Settings\Dusty.ALLISON\Desktop\uccc\From Ronald\UCCC_New\tourguide\x2023\pan8.ivr --> 216.95.249.22 /public_html/newuccc/tourguide/x2023 pan8.ivr
2007.09.22 17:41 B C:\Documents and Settings\Dusty.ALLISON\Desktop\uccc\From Ronald\UCCC_New\tourguide\x2023\pan8fast.htm --> 216.95.249.22 /public_html/newuccc/tourguide/x2023 pan8fast.htm
2007.09.22 17:41 B C:\Documents and Settings\Dusty.ALLISON\Desktop\uccc\From Ronald\UCCC_New\tourguide\x2023\pan8medium.htm --> 216.95.249.22 /public_html/newuccc/tourguide/x2023 pan8medium.htm
2007.09.22 17:41 B C:\Documents and Settings\Dusty.ALLISON\Desktop\uccc\From Ronald\UCCC_New\tourguide\x2023\pan8slow.htm --> 216.95.249.22 /public_html/newuccc/tourguide/x2023 pan8slow.htm
2007.09.22 17:41 B C:\Documents and Settings\Dusty.ALLISON\Desktop\uccc\From Ronald\UCCC_New\tourguide\x2023\pan9.ivr --> 216.95.249.22 /public_html/newuccc/tourguide/x2023 pan9.ivr
2007.09.22 17:41 B C:\Documents and Settings\Dusty.ALLISON\Desktop\uccc\From Ronald\UCCC_New\tourguide\x2023\pan9fast.htm --> 216.95.249.22 /public_html/newuccc/tourguide/x2023 pan9fast.htm
2007.09.22 17:41 B C:\Documents and Settings\Dusty.ALLISON\Desktop\uccc\From Ronald\UCCC_New\tourguide\x2023\pan9medium.htm --> 216.95.249.22 /public_html/newuccc/tourguide/x2023 pan9medium.htm
2007.09.22 17:41 B C:\Documents and Settings\Dusty.ALLISON\Desktop\uccc\From Ronald\UCCC_New\tourguide\x2023\pan9slow.htm --> 216.95.249.22 /public_html/newuccc/tourguide/x2023 pan9slow.htm
2007.09.22 17:41 B C:\Documents and Settings\Dusty.ALLISON\Desktop\uccc\From Ronald\UCCC_New\tourguide\x2023\panoapplet.class --> 216.95.249.22 /public_html/newuccc/tourguide/x2023 panoapplet.class
2007.09.22 17:41 B C:\Documents and Settings\Dusty.ALLISON\Desktop\uccc\From Ronald\UCCC_New\tourguide\x2023\panoapplet.jar --> 216.95.249.22 /public_html/newuccc/tourguide/x2023 panoapplet.jar
2007.09.22 17:41 B C:\Documents and Settings\Dusty.ALLISON\Desktop\uccc\From Ronald\UCCC_New\tourguide\x2023\slide1.htm --> 216.95.249.22 /public_html/newuccc/tourguide/x2023 slide1.htm
2007.09.22 17:41 B C:\Documents and Settings\Dusty.ALLISON\Desktop\uccc\From Ronald\UCCC_New\tourguide\x2023\slide10.htm --> 216.95.249.22 /public_html/newuccc/tourguide/x2023 slide10.htm
2007.09.22 17:41 B C:\Documents and Settings\Dusty.ALLISON\Desktop\uccc\From Ronald\UCCC_New\tourguide\x2023\slide11.htm --> 216.95.249.22 /public_html/newuccc/tourguide/x2023 slide11.htm
2007.09.22 17:41 B C:\Documents and Settings\Dusty.ALLISON\Desktop\uccc\From Ronald\UCCC_New\tourguide\x2023\slide12.htm --> 216.95.249.22 /public_html/newuccc/tourguide/x2023 slide12.htm
2007.09.22 17:41 B C:\Documents and Settings\Dusty.ALLISON\Desktop\uccc\From Ronald\UCCC_New\tourguide\x2023\slide13.htm --> 216.95.249.22 /public_html/newuccc/tourguide/x2023 slide13.htm
2007.09.22 17:41 B C:\Documents and Settings\Dusty.ALLISON\Desktop\uccc\From Ronald\UCCC_New\tourguide\x2023\slide14.htm --> 216.95.249.22 /public_html/newuccc/tourguide/x2023 slide14.htm
2007.09.22 17:41 B C:\Documents and Settings\Dusty.ALLISON\Desktop\uccc\From Ronald\UCCC_New\tourguide\x2023\slide15.htm --> 216.95.249.22 /public_html/newuccc/tourguide/x2023 slide15.htm
2007.09.22 17:41 B C:\Documents and Settings\Dusty.ALLISON\Desktop\uccc\From Ronald\UCCC_New\tourguide\x2023\slide16.htm --> 216.95.249.22 /public_html/newuccc/tourguide/x2023 slide16.htm
2007.09.22 17:41 B C:\Documents and Settings\Dusty.ALLISON\Desktop\uccc\From Ronald\UCCC_New\tourguide\x2023\slide17.htm --> 216.95.249.22 /public_html/newuccc/tourguide/x2023 slide17.htm
2007.09.22 17:41 B C:\Documents and Settings\Dusty.ALLISON\Desktop\uccc\From Ronald\UCCC_New\tourguide\x2023\slide18.htm --> 216.95.249.22 /public_html/newuccc/tourguide/x2023 slide18.htm
2007.09.22 17:41 B C:\Documents and Settings\Dusty.ALLISON\Desktop\uccc\From Ronald\UCCC_New\tourguide\x2023\slide19.htm --> 216.95.249.22 /public_html/newuccc/tourguide/x2023 slide19.htm
2007.09.22 17:41 B C:\Documents and Settings\Dusty.ALLISON\Desktop\uccc\From Ronald\UCCC_New\tourguide\x2023\slide2.htm --> 216.95.249.22 /public_html/newuccc/tourguide/x2023 slide2.htm
2007.09.22 17:41 B C:\Documents and Settings\Dusty.ALLISON\Desktop\uccc\From Ronald\UCCC_New\tourguide\x2023\slide20.htm --> 216.95.249.22 /public_html/newuccc/tourguide/x2023 slide20.htm
2007.09.22 17:41 B C:\Documents and Settings\Dusty.ALLISON\Desktop\uccc\From Ronald\UCCC_New\tourguide\x2023\slide21.htm --> 216.95.249.22 /public_html/newuccc/tourguide/x2023 slide21.htm
2007.09.22 17:41 B C:\Documents and Settings\Dusty.ALLISON\Desktop\uccc\From Ronald\UCCC_New\tourguide\x2023\slide22.htm --> 216.95.249.22 /public_html/newuccc/tourguide/x2023 slide22.htm
2007.09.22 17:41 B C:\Documents and Settings\Dusty.ALLISON\Desktop\uccc\From Ronald\UCCC_New\tourguide\x2023\slide23.htm --> 216.95.249.22 /public_html/newuccc/tourguide/x2023 slide23.htm
2007.09.22 17:41 B C:\Documents and Settings\Dusty.ALLISON\Desktop\uccc\From Ronald\UCCC_New\tourguide\x2023\slide24.htm --> 216.95.249.22 /public_html/newuccc/tourguide/x2023 slide24.htm
2007.09.22 17:41 B C:\Documents and Settings\Dusty.ALLISON\Desktop\uccc\From Ronald\UCCC_New\tourguide\x2023\slide25.htm --> 216.95.249.22 /public_html/newuccc/tourguide/x2023 slide25.htm
2007.09.22 17:41 B C:\Documents and Settings\Dusty.ALLISON\Desktop\uccc\From Ronald\UCCC_New\tourguide\x2023\slide26.htm --> 216.95.249.22 /public_html/newuccc/tourguide/x2023 slide26.htm
2007.09.22 17:41 B C:\Documents and Settings\Dusty.ALLISON\Desktop\uccc\From Ronald\UCCC_New\tourguide\x2023\slide27.htm --> 216.95.249.22 /public_html/newuccc/tourguide/x2023 slide27.htm
2007.09.22 17:41 B C:\Documents and Settings\Dusty.ALLISON\Desktop\uccc\From Ronald\UCCC_New\tourguide\x2023\slide28.htm --> 216.95.249.22 /public_html/newuccc/tourguide/x2023 slide28.htm
2007.09.22 17:41 B C:\Documents and Settings\Dusty.ALLISON\Desktop\uccc\From Ronald\UCCC_New\tourguide\x2023\slide29.htm --> 216.95.249.22 /public_html/newuccc/tourguide/x2023 slide29.htm
2007.09.22 17:41 B C:\Documents and Settings\Dusty.ALLISON\Desktop\uccc\From Ronald\UCCC_New\tourguide\x2023\slide3.htm --> 216.95.249.22 /public_html/newuccc/tourguide/x2023 slide3.htm
2007.09.22 17:41 B C:\Documents and Settings\Dusty.ALLISON\Desktop\uccc\From Ronald\UCCC_New\tourguide\x2023\slide30.htm --> 216.95.249.22 /public_html/newuccc/tourguide/x2023 slide30.htm
2007.09.22 17:41 B C:\Documents and Settings\Dusty.ALLISON\Desktop\uccc\From Ronald\UCCC_New\tourguide\x2023\slide31.htm --> 216.95.249.22 /public_html/newuccc/tourguide/x2023 slide31.htm
2007.09.22 17:41 B C:\Documents and Settings\Dusty.ALLISON\Desktop\uccc\From Ronald\UCCC_New\tourguide\x2023\slide32.htm --> 216.95.249.22 /public_html/newuccc/tourguide/x2023 slide32.htm
2007.09.22 17:41 B C:\Documents and Settings\Dusty.ALLISON\Desktop\uccc\From Ronald\UCCC_New\tourguide\x2023\slide33.htm --> 216.95.249.22 /public_html/newuccc/tourguide/x2023 slide33.htm
2007.09.22 17:41 B C:\Documents and Settings\Dusty.ALLISON\Desktop\uccc\From Ronald\UCCC_New\tourguide\x2023\slide34.htm --> 216.95.249.22 /public_html/newuccc/tourguide/x2023 slide34.htm
2007.09.22 17:41 B C:\Documents and Settings\Dusty.ALLISON\Desktop\uccc\From Ronald\UCCC_New\tourguide\x2023\slide35.htm --> 216.95.249.22 /public_html/newuccc/tourguide/x2023 slide35.htm
2007.09.22 17:41 B C:\Documents and Settings\Dusty.ALLISON\Desktop\uccc\From Ronald\UCCC_New\tourguide\x2023\slide36.htm --> 216.95.249.22 /public_html/newuccc/tourguide/x2023 slide36.htm
2007.09.22 17:41 B C:\Documents and Settings\Dusty.ALLISON\Desktop\uccc\From Ronald\UCCC_New\tourguide\x2023\slide37.htm --> 216.95.249.22 /public_html/newuccc/tourguide/x2023 slide37.htm
2007.09.22 17:41 B C:\Documents and Settings\Dusty.ALLISON\Desktop\uccc\From Ronald\UCCC_New\tourguide\x2023\slide38.htm --> 216.95.249.22 /public_html/newuccc/tourguide/x2023 slide38.htm
2007.09.22 17:41 B C:\Documents and Settings\Dusty.ALLISON\Desktop\uccc\From Ronald\UCCC_New\tourguide\x2023\slide39.htm --> 216.95.249.22 /public_html/newuccc/tourguide/x2023 slide39.htm
2007.09.22 17:41 B C:\Documents and Settings\Dusty.ALLISON\Desktop\uccc\From Ronald\UCCC_New\tourguide\x2023\slide4.htm --> 216.95.249.22 /public_html/newuccc/tourguide/x2023 slide4.htm
2007.09.22 17:41 B C:\Documents and Settings\Dusty.ALLISON\Desktop\uccc\From Ronald\UCCC_New\tourguide\x2023\slide40.htm --> 216.95.249.22 /public_html/newuccc/tourguide/x2023 slide40.htm
2007.09.22 17:41 B C:\Documents and Settings\Dusty.ALLISON\Desktop\uccc\From Ronald\UCCC_New\tourguide\x2023\slide41.htm --> 216.95.249.22 /public_html/newuccc/tourguide/x2023 slide41.htm
2007.09.22 17:41 B C:\Documents and Settings\Dusty.ALLISON\Desktop\uccc\From Ronald\UCCC_New\tourguide\x2023\slide42.htm --> 216.95.249.22 /public_html/newuccc/tourguide/x2023 slide42.htm
2007.09.22 17:41 B C:\Documents and Settings\Dusty.ALLISON\Desktop\uccc\From Ronald\UCCC_New\tourguide\x2023\slide43.htm --> 216.95.249.22 /public_html/newuccc/tourguide/x2023 slide43.htm
2007.09.22 17:41 B C:\Documents and Settings\Dusty.ALLISON\Desktop\uccc\From Ronald\UCCC_New\tourguide\x2023\slide44.htm --> 216.95.249.22 /public_html/newuccc/tourguide/x2023 slide44.htm
2007.09.22 17:41 B C:\Documents and Settings\Dusty.ALLISON\Desktop\uccc\From Ronald\UCCC_New\tourguide\x2023\slide45.htm --> 216.95.249.22 /public_html/newuccc/tourguide/x2023 slide45.htm
2007.09.22 17:41 B C:\Documents and Settings\Dusty.ALLISON\Desktop\uccc\From Ronald\UCCC_New\tourguide\x2023\slide46.htm --> 216.95.249.22 /public_html/newuccc/tourguide/x2023 slide46.htm
2007.09.22 17:41 B C:\Documents and Settings\Dusty.ALLISON\Desktop\uccc\From Ronald\UCCC_New\tourguide\x2023\slide47.htm --> 216.95.249.22 /public_html/newuccc/tourguide/x2023 slide47.htm
2007.09.22 17:41 B C:\Documents and Settings\Dusty.ALLISON\Desktop\uccc\From Ronald\UCCC_New\tourguide\x2023\slide48.htm --> 216.95.249.22 /public_html/newuccc/tourguide/x2023 slide48.htm
2007.09.22 17:41 B C:\Documents and Settings\Dusty.ALLISON\Desktop\uccc\From Ronald\UCCC_New\tourguide\x2023\slide49.htm --> 216.95.249.22 /public_html/newuccc/tourguide/x2023 slide49.htm
2007.09.22 17:41 B C:\Documents and Settings\Dusty.ALLISON\Desktop\uccc\From Ronald\UCCC_New\tourguide\x2023\slide5.htm --> 216.95.249.22 /public_html/newuccc/tourguide/x2023 slide5.htm
2007.09.22 17:41 B C:\Documents and Settings\Dusty.ALLISON\Desktop\uccc\From Ronald\UCCC_New\tourguide\x2023\slide50.htm --> 216.95.249.22 /public_html/newuccc/tourguide/x2023 slide50.htm
2007.09.22 17:41 B C:\Documents and Settings\Dusty.ALLISON\Desktop\uccc\From Ronald\UCCC_New\tourguide\x2023\slide6.htm --> 216.95.249.22 /public_html/newuccc/tourguide/x2023 slide6.htm
2007.09.22 17:41 B C:\Documents and Settings\Dusty.ALLISON\Desktop\uccc\From Ronald\UCCC_New\tourguide\x2023\slide7.htm --> 216.95.249.22 /public_html/newuccc/tourguide/x2023 slide7.htm
2007.09.22 17:41 B C:\Documents and Settings\Dusty.ALLISON\Desktop\uccc\From Ronald\UCCC_New\tourguide\x2023\slide8.htm --> 216.95.249.22 /public_html/newuccc/tourguide/x2023 slide8.htm
2007.09.22 17:41 B C:\Documents and Settings\Dusty.ALLISON\Desktop\uccc\From Ronald\UCCC_New\tourguide\x2023\slide9.htm --> 216.95.249.22 /public_html/newuccc/tourguide/x2023 slide9.htm
2007.09.22 17:41 B C:\Documents and Settings\Dusty.ALLISON\Desktop\uccc\From Ronald\UCCC_New\tourguide\x2023\stop.htm --> 216.95.249.22 /public_html/newuccc/tourguide/x2023 stop.htm
2007.09.22 17:41 B C:\Documents and Settings\Dusty.ALLISON\Desktop\uccc\From Ronald\UCCC_New\tourguide\x2023\thecareguide.jpg --> 216.95.249.22 /public_html/newuccc/tourguide/x2023 thecareguide.jpg
2007.09.22 17:41 B C:\Documents and Settings\Dusty.ALLISON\Desktop\uccc\From Ronald\UCCC_New\tourguide\x2023\thecareguide1.jpg --> 216.95.249.22 /public_html/newuccc/tourguide/x2023 thecareguide1.jpg
2008.02.14 17:45 B C:\Users\Allison\Desktop\Funding Matters\UCCC\UCCC Web\From Ronald\UCCC_New\tourguide\x2023\00exteriorfront141.jpg --> 216.95.249.22 /public_html/tourguide/x2023 00exteriorfront141.jpg
2008.02.14 17:45 B C:\Users\Allison\Desktop\Funding Matters\UCCC\UCCC Web\From Ronald\UCCC_New\tourguide\x2023\01exteriorfront107.jpg --> 216.95.249.22 /public_html/tourguide/x2023 01exteriorfront107.jpg
2008.02.14 17:45 B C:\Users\Allison\Desktop\Funding Matters\UCCC\UCCC Web\From Ronald\UCCC_New\tourguide\x2023\02lobby6.jpg --> 216.95.249.22 /public_html/tourguide/x2023 02lobby6.jpg
2008.02.14 17:45 B C:\Users\Allison\Desktop\Funding Matters\UCCC\UCCC Web\From Ronald\UCCC_New\tourguide\x2023\03lobby13.jpg --> 216.95.249.22 /public_html/tourguide/x2023 03lobby13.jpg
2008.02.14 17:45 B C:\Users\Allison\Desktop\Funding Matters\UCCC\UCCC Web\From Ronald\UCCC_New\tourguide\x2023\04ramp.jpg --> 216.95.249.22 /public_html/tourguide/x2023 04ramp.jpg
2008.02.14 17:45 B C:\Users\Allison\Desktop\Funding Matters\UCCC\UCCC Web\From Ronald\UCCC_New\tourguide\x2023\05reception.jpg --> 216.95.249.22 /public_html/tourguide/x2023 05reception.jpg
2008.02.14 17:45 B C:\Users\Allison\Desktop\Funding Matters\UCCC\UCCC Web\From Ronald\UCCC_New\tourguide\x2023\06hall.jpg --> 216.95.249.22 /public_html/tourguide/x2023 06hall.jpg
2008.02.14 17:45 B C:\Users\Allison\Desktop\Funding Matters\UCCC\UCCC Web\From Ronald\UCCC_New\tourguide\x2023\07hall.jpg --> 216.95.249.22 /public_html/tourguide/x2023 07hall.jpg
2008.02.14 17:45 B C:\Users\Allison\Desktop\Funding Matters\UCCC\UCCC Web\From Ronald\UCCC_New\tourguide\x2023\08hall.jpg --> 216.95.249.22 /public_html/tourguide/x2023 08hall.jpg
2008.02.14 17:45 B C:\Users\Allison\Desktop\Funding Matters\UCCC\UCCC Web\From Ronald\UCCC_New\tourguide\x2023\09hall.jpg --> 216.95.249.22 /public_html/tourguide/x2023 09hall.jpg
2008.02.14 17:45 B C:\Users\Allison\Desktop\Funding Matters\UCCC\UCCC Web\From Ronald\UCCC_New\tourguide\x2023\11hall3.jpg --> 216.95.249.22 /public_html/tourguide/x2023 11hall3.jpg
2008.02.14 17:45 B C:\Users\Allison\Desktop\Funding Matters\UCCC\UCCC Web\From Ronald\UCCC_New\tourguide\x2023\12hall.jpg --> 216.95.249.22 /public_html/tourguide/x2023 12hall.jpg
2008.02.14 17:45 B C:\Users\Allison\Desktop\Funding Matters\UCCC\UCCC Web\From Ronald\UCCC_New\tourguide\x2023\12hall2.jpg --> 216.95.249.22 /public_html/tourguide/x2023 12hall2.jpg
2008.02.14 17:45 B C:\Users\Allison\Desktop\Funding Matters\UCCC\UCCC Web\From Ronald\UCCC_New\tourguide\x2023\16stairs3.jpg --> 216.95.249.22 /public_html/tourguide/x2023 16stairs3.jpg
2008.02.14 17:45 B C:\Users\Allison\Desktop\Funding Matters\UCCC\UCCC Web\From Ronald\UCCC_New\tourguide\x2023\17stairs2.jpg --> 216.95.249.22 /public_html/tourguide/x2023 17stairs2.jpg
2008.02.14 17:45 B C:\Users\Allison\Desktop\Funding Matters\UCCC\UCCC Web\From Ronald\UCCC_New\tourguide\x2023\17stairs3.jpg --> 216.95.249.22 /public_html/tourguide/x2023 17stairs3.jpg
2008.02.14 17:45 B C:\Users\Allison\Desktop\Funding Matters\UCCC\UCCC Web\From Ronald\UCCC_New\tourguide\x2023\18hall.jpg --> 216.95.249.22 /public_html/tourguide/x2023 18hall.jpg
2008.02.14 17:45 B C:\Users\Allison\Desktop\Funding Matters\UCCC\UCCC Web\From Ronald\UCCC_New\tourguide\x2023\18hall2.jpg --> 216.95.249.22 /public_html/tourguide/x2023 18hall2.jpg
2008.02.14 17:45 B C:\Users\Allison\Desktop\Funding Matters\UCCC\UCCC Web\From Ronald\UCCC_New\tourguide\x2023\19hall1.jpg --> 216.95.249.22 /public_html/tourguide/x2023 19hall1.jpg
2008.02.14 17:45 B C:\Users\Allison\Desktop\Funding Matters\UCCC\UCCC Web\From Ronald\UCCC_New\tourguide\x2023\24fishpond.jpg --> 216.95.249.22 /public_html/tourguide/x2023 24fishpond.jpg
2008.02.14 17:45 B C:\Users\Allison\Desktop\Funding Matters\UCCC\UCCC Web\From Ronald\UCCC_New\tourguide\x2023\25fishtank.jpg --> 216.95.249.22 /public_html/tourguide/x2023 25fishtank.jpg
2008.02.14 17:45 B C:\Users\Allison\Desktop\Funding Matters\UCCC\UCCC Web\From Ronald\UCCC_New\tourguide\x2023\26librarywithinternetaccess.jpg --> 216.95.249.22 /public_html/tourguide/x2023 26librarywithinternetaccess.jpg
2008.02.14 17:45 B C:\Users\Allison\Desktop\Funding Matters\UCCC\UCCC Web\From Ronald\UCCC_New\tourguide\x2023\28chapel.jpg --> 216.95.249.22 /public_html/tourguide/x2023 28chapel.jpg
2008.02.14 17:45 B C:\Users\Allison\Desktop\Funding Matters\UCCC\UCCC Web\From Ronald\UCCC_New\tourguide\x2023\29chapel.jpg --> 216.95.249.22 /public_html/tourguide/x2023 29chapel.jpg
2008.02.14 17:46 B C:\Users\Allison\Desktop\Funding Matters\UCCC\UCCC Web\From Ronald\UCCC_New\tourguide\x2023\31chapel.jpg --> 216.95.249.22 /public_html/tourguide/x2023 31chapel.jpg
2008.02.14 17:46 B C:\Users\Allison\Desktop\Funding Matters\UCCC\UCCC Web\From Ronald\UCCC_New\tourguide\x2023\31chapel2.jpg --> 216.95.249.22 /public_html/tourguide/x2023 31chapel2.jpg
2008.02.14 17:46 B C:\Users\Allison\Desktop\Funding Matters\UCCC\UCCC Web\From Ronald\UCCC_New\tourguide\x2023\32chapel.jpg --> 216.95.249.22 /public_html/tourguide/x2023 32chapel.jpg
2008.02.14 17:46 B C:\Users\Allison\Desktop\Funding Matters\UCCC\UCCC Web\From Ronald\UCCC_New\tourguide\x2023\32chapel2.jpg --> 216.95.249.22 /public_html/tourguide/x2023 32chapel2.jpg
2008.02.14 17:46 B C:\Users\Allison\Desktop\Funding Matters\UCCC\UCCC Web\From Ronald\UCCC_New\tourguide\x2023\33chapel1.jpg --> 216.95.249.22 /public_html/tourguide/x2023 33chapel1.jpg
2008.02.14 17:46 B C:\Users\Allison\Desktop\Funding Matters\UCCC\UCCC Web\From Ronald\UCCC_New\tourguide\x2023\34chapel.jpg --> 216.95.249.22 /public_html/tourguide/x2023 34chapel.jpg
2008.02.14 17:46 B C:\Users\Allison\Desktop\Funding Matters\UCCC\UCCC Web\From Ronald\UCCC_New\tourguide\x2023\36chapel.jpg --> 216.95.249.22 /public_html/tourguide/x2023 36chapel.jpg
2008.02.14 17:46 B C:\Users\Allison\Desktop\Funding Matters\UCCC\UCCC Web\From Ronald\UCCC_New\tourguide\x2023\37chapel.jpg --> 216.95.249.22 /public_html/tourguide/x2023 37chapel.jpg
2008.02.14 17:46 B C:\Users\Allison\Desktop\Funding Matters\UCCC\UCCC Web\From Ronald\UCCC_New\tourguide\x2023\38chapel.jpg --> 216.95.249.22 /public_html/tourguide/x2023 38chapel.jpg
2008.02.14 17:46 B C:\Users\Allison\Desktop\Funding Matters\UCCC\UCCC Web\From Ronald\UCCC_New\tourguide\x2023\39giftshop.jpg --> 216.95.249.22 /public_html/tourguide/x2023 39giftshop.jpg
2008.02.14 17:46 B C:\Users\Allison\Desktop\Funding Matters\UCCC\UCCC Web\From Ronald\UCCC_New\tourguide\x2023\40hall.jpg --> 216.95.249.22 /public_html/tourguide/x2023 40hall.jpg
2008.02.14 17:46 B C:\Users\Allison\Desktop\Funding Matters\UCCC\UCCC Web\From Ronald\UCCC_New\tourguide\x2023\41diningroom22.jpg --> 216.95.249.22 /public_html/tourguide/x2023 41diningroom22.jpg
2008.02.14 17:46 B C:\Users\Allison\Desktop\Funding Matters\UCCC\UCCC Web\From Ronald\UCCC_New\tourguide\x2023\44diningroom14.jpg --> 216.95.249.22 /public_html/tourguide/x2023 44diningroom14.jpg
2008.02.14 17:46 B C:\Users\Allison\Desktop\Funding Matters\UCCC\UCCC Web\From Ronald\UCCC_New\tourguide\x2023\46diningroom6.jpg --> 216.95.249.22 /public_html/tourguide/x2023 46diningroom6.jpg
2008.02.14 17:46 B C:\Users\Allison\Desktop\Funding Matters\UCCC\UCCC Web\From Ronald\UCCC_New\tourguide\x2023\47diningroom6.jpg --> 216.95.249.22 /public_html/tourguide/x2023 47diningroom6.jpg
2008.02.14 17:46 B C:\Users\Allison\Desktop\Funding Matters\UCCC\UCCC Web\From Ronald\UCCC_New\tourguide\x2023\49lounge.jpg --> 216.95.249.22 /public_html/tourguide/x2023 49lounge.jpg
2008.02.14 17:46 B C:\Users\Allison\Desktop\Funding Matters\UCCC\UCCC Web\From Ronald\UCCC_New\tourguide\x2023\50lounge1.jpg --> 216.95.249.22 /public_html/tourguide/x2023 50lounge1.jpg
2008.02.14 17:46 B C:\Users\Allison\Desktop\Funding Matters\UCCC\UCCC Web\From Ronald\UCCC_New\tourguide\x2023\51activityroom2.jpg --> 216.95.249.22 /public_html/tourguide/x2023 51activityroom2.jpg
2008.02.14 17:46 B C:\Users\Allison\Desktop\Funding Matters\UCCC\UCCC Web\From Ronald\UCCC_New\tourguide\x2023\52activityroom2.jpg --> 216.95.249.22 /public_html/tourguide/x2023 52activityroom2.jpg
2008.02.14 17:46 B C:\Users\Allison\Desktop\Funding Matters\UCCC\UCCC Web\From Ronald\UCCC_New\tourguide\x2023\53activityroom.jpg --> 216.95.249.22 /public_html/tourguide/x2023 53activityroom.jpg
2008.02.14 17:46 B C:\Users\Allison\Desktop\Funding Matters\UCCC\UCCC Web\From Ronald\UCCC_New\tourguide\x2023\54nursingcentreateachfloor.jpg --> 216.95.249.22 /public_html/tourguide/x2023 54nursingcentreateachfloor.jpg
2008.02.14 17:46 B C:\Users\Allison\Desktop\Funding Matters\UCCC\UCCC Web\From Ronald\UCCC_New\tourguide\x2023\55courtyard.jpg --> 216.95.249.22 /public_html/tourguide/x2023 55courtyard.jpg
2008.02.14 17:46 B C:\Users\Allison\Desktop\Funding Matters\UCCC\UCCC Web\From Ronald\UCCC_New\tourguide\x2023\56courtyard.jpg --> 216.95.249.22 /public_html/tourguide/x2023 56courtyard.jpg
2008.02.14 17:46 B C:\Users\Allison\Desktop\Funding Matters\UCCC\UCCC Web\From Ronald\UCCC_New\tourguide\x2023\57courtyard.jpg --> 216.95.249.22 /public_html/tourguide/x2023 57courtyard.jpg
2008.02.14 17:46 B C:\Users\Allison\Desktop\Funding Matters\UCCC\UCCC Web\From Ronald\UCCC_New\tourguide\x2023\58courtyard.jpg --> 216.95.249.22 /public_html/tourguide/x2023 58courtyard.jpg
2008.02.14 17:46 B C:\Users\Allison\Desktop\Funding Matters\UCCC\UCCC Web\From Ronald\UCCC_New\tourguide\x2023\60patio.jpg --> 216.95.249.22 /public_html/tourguide/x2023 60patio.jpg
2008.02.14 17:46 B C:\Users\Allison\Desktop\Funding Matters\UCCC\UCCC Web\From Ronald\UCCC_New\tourguide\x2023\61patio.jpg --> 216.95.249.22 /public_html/tourguide/x2023 61patio.jpg
2008.02.14 17:46 B C:\Users\Allison\Desktop\Funding Matters\UCCC\UCCC Web\From Ronald\UCCC_New\tourguide\x2023\61patio2.jpg --> 216.95.249.22 /public_html/tourguide/x2023 61patio2.jpg
2008.02.14 17:46 B C:\Users\Allison\Desktop\Funding Matters\UCCC\UCCC Web\From Ronald\UCCC_New\tourguide\x2023\62patio.jpg --> 216.95.249.22 /public_html/tourguide/x2023 62patio.jpg
2008.02.14 17:46 B C:\Users\Allison\Desktop\Funding Matters\UCCC\UCCC Web\From Ronald\UCCC_New\tourguide\x2023\63patio.jpg --> 216.95.249.22 /public_html/tourguide/x2023 63patio.jpg
2008.02.14 17:47 B C:\Users\Allison\Desktop\Funding Matters\UCCC\UCCC Web\From Ronald\UCCC_New\tourguide\x2023\64patio.jpg --> 216.95.249.22 /public_html/tourguide/x2023 64patio.jpg
2008.02.14 17:47 B C:\Users\Allison\Desktop\Funding Matters\UCCC\UCCC Web\From Ronald\UCCC_New\tourguide\x2023\65backyard.jpg --> 216.95.249.22 /public_html/tourguide/x2023 65backyard.jpg
2008.02.14 17:47 B C:\Users\Allison\Desktop\Funding Matters\UCCC\UCCC Web\From Ronald\UCCC_New\tourguide\x2023\background.jpg --> 216.95.249.22 /public_html/tourguide/x2023 background.jpg
2008.02.14 17:47 B C:\Users\Allison\Desktop\Funding Matters\UCCC\UCCC Web\From Ronald\UCCC_New\tourguide\x2023\bbbb.htm --> 216.95.249.22 /public_html/tourguide/x2023 bbbb.htm
2008.02.14 17:47 B C:\Users\Allison\Desktop\Funding Matters\UCCC\UCCC Web\From Ronald\UCCC_New\tourguide\x2023\featuresheet.htm --> 216.95.249.22 /public_html/tourguide/x2023 featuresheet.htm
2008.02.14 17:47 B C:\Users\Allison\Desktop\Funding Matters\UCCC\UCCC Web\From Ronald\UCCC_New\tourguide\x2023\featuresheet2.htm --> 216.95.249.22 /public_html/tourguide/x2023 featuresheet2.htm
2008.02.14 17:47 B C:\Users\Allison\Desktop\Funding Matters\UCCC\UCCC Web\From Ronald\UCCC_New\tourguide\x2023\index.htm --> 216.95.249.22 /public_html/tourguide/x2023 index.htm
2008.02.14 17:47 B C:\Users\Allison\Desktop\Funding Matters\UCCC\UCCC Web\From Ronald\UCCC_New\tourguide\x2023\index2.htm --> 216.95.249.22 /public_html/tourguide/x2023 index2.htm
2008.02.14 17:47 B C:\Users\Allison\Desktop\Funding Matters\UCCC\UCCC Web\From Ronald\UCCC_New\tourguide\x2023\indexpan1fast.htm --> 216.95.249.22 /public_html/tourguide/x2023 indexpan1fast.htm
2008.02.14 17:47 B C:\Users\Allison\Desktop\Funding Matters\UCCC\UCCC Web\From Ronald\UCCC_New\tourguide\x2023\indexpan1medium.htm --> 216.95.249.22 /public_html/tourguide/x2023 indexpan1medium.htm
2008.02.14 17:47 B C:\Users\Allison\Desktop\Funding Matters\UCCC\UCCC Web\From Ronald\UCCC_New\tourguide\x2023\indexpan1slow.htm --> 216.95.249.22 /public_html/tourguide/x2023 indexpan1slow.htm
2008.02.14 17:47 B C:\Users\Allison\Desktop\Funding Matters\UCCC\UCCC Web\From Ronald\UCCC_New\tourguide\x2023\indexpan2fast.htm --> 216.95.249.22 /public_html/tourguide/x2023 indexpan2fast.htm
2008.02.14 17:47 B C:\Users\Allison\Desktop\Funding Matters\UCCC\UCCC Web\From Ronald\UCCC_New\tourguide\x2023\indexpan2medium.htm --> 216.95.249.22 /public_html/tourguide/x2023 indexpan2medium.htm
2008.02.14 17:47 B C:\Users\Allison\Desktop\Funding Matters\UCCC\UCCC Web\From Ronald\UCCC_New\tourguide\x2023\indexpan2slow.htm --> 216.95.249.22 /public_html/tourguide/x2023 indexpan2slow.htm
2008.02.14 17:47 B C:\Users\Allison\Desktop\Funding Matters\UCCC\UCCC Web\From Ronald\UCCC_New\tourguide\x2023\indexpan3fast.htm --> 216.95.249.22 /public_html/tourguide/x2023 indexpan3fast.htm
2008.02.14 17:47 B C:\Users\Allison\Desktop\Funding Matters\UCCC\UCCC Web\From Ronald\UCCC_New\tourguide\x2023\indexpan3medium.htm --> 216.95.249.22 /public_html/tourguide/x2023 indexpan3medium.htm
2008.02.14 17:47 B C:\Users\Allison\Desktop\Funding Matters\UCCC\UCCC Web\From Ronald\UCCC_New\tourguide\x2023\indexpan3slow.htm --> 216.95.249.22 /public_html/tourguide/x2023 indexpan3slow.htm
2008.02.14 17:47 B C:\Users\Allison\Desktop\Funding Matters\UCCC\UCCC Web\From Ronald\UCCC_New\tourguide\x2023\indexpan4fast.htm --> 216.95.249.22 /public_html/tourguide/x2023 indexpan4fast.htm
2008.02.14 17:47 B C:\Users\Allison\Desktop\Funding Matters\UCCC\UCCC Web\From Ronald\UCCC_New\tourguide\x2023\indexpan4medium.htm --> 216.95.249.22 /public_html/tourguide/x2023 indexpan4medium.htm
2008.02.14 17:47 B C:\Users\Allison\Desktop\Funding Matters\UCCC\UCCC Web\From Ronald\UCCC_New\tourguide\x2023\indexpan4slow.htm --> 216.95.249.22 /public_html/tourguide/x2023 indexpan4slow.htm
2008.02.14 17:47 B C:\Users\Allison\Desktop\Funding Matters\UCCC\UCCC Web\From Ronald\UCCC_New\tourguide\x2023\indexpan5fast.htm --> 216.95.249.22 /public_html/tourguide/x2023 indexpan5fast.htm
2008.02.14 17:47 B C:\Users\Allison\Desktop\Funding Matters\UCCC\UCCC Web\From Ronald\UCCC_New\tourguide\x2023\indexpan5medium.htm --> 216.95.249.22 /public_html/tourguide/x2023 indexpan5medium.htm
2008.02.14 17:47 B C:\Users\Allison\Desktop\Funding Matters\UCCC\UCCC Web\From Ronald\UCCC_New\tourguide\x2023\indexpan5slow.htm --> 216.95.249.22 /public_html/tourguide/x2023 indexpan5slow.htm
2008.02.14 17:47 B C:\Users\Allison\Desktop\Funding Matters\UCCC\UCCC Web\From Ronald\UCCC_New\tourguide\x2023\indexpan6fast.htm --> 216.95.249.22 /public_html/tourguide/x2023 indexpan6fast.htm
2008.02.14 17:47 B C:\Users\Allison\Desktop\Funding Matters\UCCC\UCCC Web\From Ronald\UCCC_New\tourguide\x2023\indexpan6medium.htm --> 216.95.249.22 /public_html/tourguide/x2023 indexpan6medium.htm
2008.02.14 17:47 B C:\Users\Allison\Desktop\Funding Matters\UCCC\UCCC Web\From Ronald\UCCC_New\tourguide\x2023\indexpan6slow.htm --> 216.95.249.22 /public_html/tourguide/x2023 indexpan6slow.htm
2008.02.14 17:47 B C:\Users\Allison\Desktop\Funding Matters\UCCC\UCCC Web\From Ronald\UCCC_New\tourguide\x2023\indexpan7fast.htm --> 216.95.249.22 /public_html/tourguide/x2023 indexpan7fast.htm
2008.02.14 17:47 B C:\Users\Allison\Desktop\Funding Matters\UCCC\UCCC Web\From Ronald\UCCC_New\tourguide\x2023\indexpan7medium.htm --> 216.95.249.22 /public_html/tourguide/x2023 indexpan7medium.htm
2008.02.14 17:47 B C:\Users\Allison\Desktop\Funding Matters\UCCC\UCCC Web\From Ronald\UCCC_New\tourguide\x2023\indexpan7slow.htm --> 216.95.249.22 /public_html/tourguide/x2023 indexpan7slow.htm
2008.02.14 17:47 B C:\Users\Allison\Desktop\Funding Matters\UCCC\UCCC Web\From Ronald\UCCC_New\tourguide\x2023\indexpan8fast.htm --> 216.95.249.22 /public_html/tourguide/x2023 indexpan8fast.htm
2008.02.14 17:47 B C:\Users\Allison\Desktop\Funding Matters\UCCC\UCCC Web\From Ronald\UCCC_New\tourguide\x2023\indexpan8medium.htm --> 216.95.249.22 /public_html/tourguide/x2023 indexpan8medium.htm
2008.02.14 17:47 B C:\Users\Allison\Desktop\Funding Matters\UCCC\UCCC Web\From Ronald\UCCC_New\tourguide\x2023\indexpan8slow.htm --> 216.95.249.22 /public_html/tourguide/x2023 indexpan8slow.htm
2008.02.14 17:47 B C:\Users\Allison\Desktop\Funding Matters\UCCC\UCCC Web\From Ronald\UCCC_New\tourguide\x2023\indexpan9fast.htm --> 216.95.249.22 /public_html/tourguide/x2023 indexpan9fast.htm
2008.02.14 17:47 B C:\Users\Allison\Desktop\Funding Matters\UCCC\UCCC Web\From Ronald\UCCC_New\tourguide\x2023\indexpan9medium.htm --> 216.95.249.22 /public_html/tourguide/x2023 indexpan9medium.htm
2008.02.14 17:47 B C:\Users\Allison\Desktop\Funding Matters\UCCC\UCCC Web\From Ronald\UCCC_New\tourguide\x2023\indexpan9slow.htm --> 216.95.249.22 /public_html/tourguide/x2023 indexpan9slow.htm
2008.02.14 17:47 B C:\Users\Allison\Desktop\Funding Matters\UCCC\UCCC Web\From Ronald\UCCC_New\tourguide\x2023\listtfast.htm --> 216.95.249.22 /public_html/tourguide/x2023 listtfast.htm
2008.02.14 17:47 B C:\Users\Allison\Desktop\Funding Matters\UCCC\UCCC Web\From Ronald\UCCC_New\tourguide\x2023\listtmedium.htm --> 216.95.249.22 /public_html/tourguide/x2023 listtmedium.htm
2008.02.14 17:47 B C:\Users\Allison\Desktop\Funding Matters\UCCC\UCCC Web\From Ronald\UCCC_New\tourguide\x2023\listtslow.htm --> 216.95.249.22 /public_html/tourguide/x2023 listtslow.htm
2008.02.14 17:47 B C:\Users\Allison\Desktop\Funding Matters\UCCC\UCCC Web\From Ronald\UCCC_New\tourguide\x2023\mainphoto.htm --> 216.95.249.22 /public_html/tourguide/x2023 mainphoto.htm
2008.02.14 17:47 B C:\Users\Allison\Desktop\Funding Matters\UCCC\UCCC Web\From Ronald\UCCC_New\tourguide\x2023\mainphoto.jpg --> 216.95.249.22 /public_html/tourguide/x2023 mainphoto.jpg
2008.02.14 17:47 B C:\Users\Allison\Desktop\Funding Matters\UCCC\UCCC Web\From Ronald\UCCC_New\tourguide\x2023\mainphoto.php --> 216.95.249.22 /public_html/tourguide/x2023 mainphoto.php
2008.02.14 17:47 B C:\Users\Allison\Desktop\Funding Matters\UCCC\UCCC Web\From Ronald\UCCC_New\tourguide\x2023\pan1.ivr --> 216.95.249.22 /public_html/tourguide/x2023 pan1.ivr
2008.02.14 17:47 B C:\Users\Allison\Desktop\Funding Matters\UCCC\UCCC Web\From Ronald\UCCC_New\tourguide\x2023\pan1.jpg --> 216.95.249.22 /public_html/tourguide/x2023 pan1.jpg
2008.02.14 17:47 B C:\Users\Allison\Desktop\Funding Matters\UCCC\UCCC Web\From Ronald\UCCC_New\tourguide\x2023\pan1fast.htm --> 216.95.249.22 /public_html/tourguide/x2023 pan1fast.htm
2008.02.14 17:47 B C:\Users\Allison\Desktop\Funding Matters\UCCC\UCCC Web\From Ronald\UCCC_New\tourguide\x2023\pan1medium.htm --> 216.95.249.22 /public_html/tourguide/x2023 pan1medium.htm
2008.02.14 17:47 B C:\Users\Allison\Desktop\Funding Matters\UCCC\UCCC Web\From Ronald\UCCC_New\tourguide\x2023\pan1slow.htm --> 216.95.249.22 /public_html/tourguide/x2023 pan1slow.htm
2008.02.14 17:47 B C:\Users\Allison\Desktop\Funding Matters\UCCC\UCCC Web\From Ronald\UCCC_New\tourguide\x2023\pan2.ivr --> 216.95.249.22 /public_html/tourguide/x2023 pan2.ivr
2008.02.14 17:47 B C:\Users\Allison\Desktop\Funding Matters\UCCC\UCCC Web\From Ronald\UCCC_New\tourguide\x2023\pan2.jpg --> 216.95.249.22 /public_html/tourguide/x2023 pan2.jpg
2008.02.14 17:47 B C:\Users\Allison\Desktop\Funding Matters\UCCC\UCCC Web\From Ronald\UCCC_New\tourguide\x2023\pan2fast.htm --> 216.95.249.22 /public_html/tourguide/x2023 pan2fast.htm
2008.02.14 17:47 B C:\Users\Allison\Desktop\Funding Matters\UCCC\UCCC Web\From Ronald\UCCC_New\tourguide\x2023\pan2medium.htm --> 216.95.249.22 /public_html/tourguide/x2023 pan2medium.htm
2008.02.14 17:47 B C:\Users\Allison\Desktop\Funding Matters\UCCC\UCCC Web\From Ronald\UCCC_New\tourguide\x2023\pan2slow.htm --> 216.95.249.22 /public_html/tourguide/x2023 pan2slow.htm
2008.02.14 17:47 B C:\Users\Allison\Desktop\Funding Matters\UCCC\UCCC Web\From Ronald\UCCC_New\tourguide\x2023\pan3.ivr --> 216.95.249.22 /public_html/tourguide/x2023 pan3.ivr
2008.02.14 17:47 B C:\Users\Allison\Desktop\Funding Matters\UCCC\UCCC Web\From Ronald\UCCC_New\tourguide\x2023\pan3.jpg --> 216.95.249.22 /public_html/tourguide/x2023 pan3.jpg
2008.02.14 17:47 B C:\Users\Allison\Desktop\Funding Matters\UCCC\UCCC Web\From Ronald\UCCC_New\tourguide\x2023\pan3fast.htm --> 216.95.249.22 /public_html/tourguide/x2023 pan3fast.htm
2008.02.14 17:47 B C:\Users\Allison\Desktop\Funding Matters\UCCC\UCCC Web\From Ronald\UCCC_New\tourguide\x2023\pan3medium.htm --> 216.95.249.22 /public_html/tourguide/x2023 pan3medium.htm
2008.02.14 17:47 B C:\Users\Allison\Desktop\Funding Matters\UCCC\UCCC Web\From Ronald\UCCC_New\tourguide\x2023\pan3slow.htm --> 216.95.249.22 /public_html/tourguide/x2023 pan3slow.htm
2008.02.14 17:47 B C:\Users\Allison\Desktop\Funding Matters\UCCC\UCCC Web\From Ronald\UCCC_New\tourguide\x2023\pan4.ivr --> 216.95.249.22 /public_html/tourguide/x2023 pan4.ivr
2008.02.14 17:48 B C:\Users\Allison\Desktop\Funding Matters\UCCC\UCCC Web\From Ronald\UCCC_New\tourguide\x2023\pan4.jpg --> 216.95.249.22 /public_html/tourguide/x2023 pan4.jpg
2008.02.14 17:48 B C:\Users\Allison\Desktop\Funding Matters\UCCC\UCCC Web\From Ronald\UCCC_New\tourguide\x2023\pan4fast.htm --> 216.95.249.22 /public_html/tourguide/x2023 pan4fast.htm
2008.02.14 17:48 B C:\Users\Allison\Desktop\Funding Matters\UCCC\UCCC Web\From Ronald\UCCC_New\tourguide\x2023\pan4medium.htm --> 216.95.249.22 /public_html/tourguide/x2023 pan4medium.htm
2008.02.14 17:48 B C:\Users\Allison\Desktop\Funding Matters\UCCC\UCCC Web\From Ronald\UCCC_New\tourguide\x2023\pan4slow.htm --> 216.95.249.22 /public_html/tourguide/x2023 pan4slow.htm
2008.02.14 17:48 B C:\Users\Allison\Desktop\Funding Matters\UCCC\UCCC Web\From Ronald\UCCC_New\tourguide\x2023\pan5.ivr --> 216.95.249.22 /public_html/tourguide/x2023 pan5.ivr
2008.02.14 17:48 B C:\Users\Allison\Desktop\Funding Matters\UCCC\UCCC Web\From Ronald\UCCC_New\tourguide\x2023\pan5fast.htm --> 216.95.249.22 /public_html/tourguide/x2023 pan5fast.htm
2008.02.14 17:48 B C:\Users\Allison\Desktop\Funding Matters\UCCC\UCCC Web\From Ronald\UCCC_New\tourguide\x2023\pan5medium.htm --> 216.95.249.22 /public_html/tourguide/x2023 pan5medium.htm
2008.02.14 17:48 B C:\Users\Allison\Desktop\Funding Matters\UCCC\UCCC Web\From Ronald\UCCC_New\tourguide\x2023\pan5slow.htm --> 216.95.249.22 /public_html/tourguide/x2023 pan5slow.htm
2008.02.14 17:48 B C:\Users\Allison\Desktop\Funding Matters\UCCC\UCCC Web\From Ronald\UCCC_New\tourguide\x2023\pan6.ivr --> 216.95.249.22 /public_html/tourguide/x2023 pan6.ivr
2008.02.14 17:48 B C:\Users\Allison\Desktop\Funding Matters\UCCC\UCCC Web\From Ronald\UCCC_New\tourguide\x2023\pan6fast.htm --> 216.95.249.22 /public_html/tourguide/x2023 pan6fast.htm
2008.02.14 17:48 B C:\Users\Allison\Desktop\Funding Matters\UCCC\UCCC Web\From Ronald\UCCC_New\tourguide\x2023\pan6medium.htm --> 216.95.249.22 /public_html/tourguide/x2023 pan6medium.htm
2008.02.14 17:48 B C:\Users\Allison\Desktop\Funding Matters\UCCC\UCCC Web\From Ronald\UCCC_New\tourguide\x2023\pan6slow.htm --> 216.95.249.22 /public_html/tourguide/x2023 pan6slow.htm
2008.02.14 17:48 B C:\Users\Allison\Desktop\Funding Matters\UCCC\UCCC Web\From Ronald\UCCC_New\tourguide\x2023\pan7.ivr --> 216.95.249.22 /public_html/tourguide/x2023 pan7.ivr
2008.02.14 17:48 B C:\Users\Allison\Desktop\Funding Matters\UCCC\UCCC Web\From Ronald\UCCC_New\tourguide\x2023\pan7fast.htm --> 216.95.249.22 /public_html/tourguide/x2023 pan7fast.htm
2008.02.14 17:48 B C:\Users\Allison\Desktop\Funding Matters\UCCC\UCCC Web\From Ronald\UCCC_New\tourguide\x2023\pan7medium.htm --> 216.95.249.22 /public_html/tourguide/x2023 pan7medium.htm
2008.02.14 17:48 B C:\Users\Allison\Desktop\Funding Matters\UCCC\UCCC Web\From Ronald\UCCC_New\tourguide\x2023\pan7slow.htm --> 216.95.249.22 /public_html/tourguide/x2023 pan7slow.htm
2008.02.14 17:48 B C:\Users\Allison\Desktop\Funding Matters\UCCC\UCCC Web\From Ronald\UCCC_New\tourguide\x2023\pan8.ivr --> 216.95.249.22 /public_html/tourguide/x2023 pan8.ivr
2008.02.14 17:48 B C:\Users\Allison\Desktop\Funding Matters\UCCC\UCCC Web\From Ronald\UCCC_New\tourguide\x2023\pan8fast.htm --> 216.95.249.22 /public_html/tourguide/x2023 pan8fast.htm
2008.02.14 17:48 B C:\Users\Allison\Desktop\Funding Matters\UCCC\UCCC Web\From Ronald\UCCC_New\tourguide\x2023\pan8medium.htm --> 216.95.249.22 /public_html/tourguide/x2023 pan8medium.htm
2008.02.14 17:48 B C:\Users\Allison\Desktop\Funding Matters\UCCC\UCCC Web\From Ronald\UCCC_New\tourguide\x2023\pan8slow.htm --> 216.95.249.22 /public_html/tourguide/x2023 pan8slow.htm
2008.02.14 17:48 B C:\Users\Allison\Desktop\Funding Matters\UCCC\UCCC Web\From Ronald\UCCC_New\tourguide\x2023\pan9.ivr --> 216.95.249.22 /public_html/tourguide/x2023 pan9.ivr
2008.02.14 17:48 B C:\Users\Allison\Desktop\Funding Matters\UCCC\UCCC Web\From Ronald\UCCC_New\tourguide\x2023\pan9fast.htm --> 216.95.249.22 /public_html/tourguide/x2023 pan9fast.htm
2008.02.14 17:48 B C:\Users\Allison\Desktop\Funding Matters\UCCC\UCCC Web\From Ronald\UCCC_New\tourguide\x2023\pan9medium.htm --> 216.95.249.22 /public_html/tourguide/x2023 pan9medium.htm
2008.02.14 17:48 B C:\Users\Allison\Desktop\Funding Matters\UCCC\UCCC Web\From Ronald\UCCC_New\tourguide\x2023\pan9slow.htm --> 216.95.249.22 /public_html/tourguide/x2023 pan9slow.htm
2008.02.14 17:48 B C:\Users\Allison\Desktop\Funding Matters\UCCC\UCCC Web\From Ronald\UCCC_New\tourguide\x2023\panoapplet.class --> 216.95.249.22 /public_html/tourguide/x2023 panoapplet.class
2008.02.14 17:48 B C:\Users\Allison\Desktop\Funding Matters\UCCC\UCCC Web\From Ronald\UCCC_New\tourguide\x2023\panoapplet.jar --> 216.95.249.22 /public_html/tourguide/x2023 panoapplet.jar
2008.02.14 17:48 B C:\Users\Allison\Desktop\Funding Matters\UCCC\UCCC Web\From Ronald\UCCC_New\tourguide\x2023\slide1.htm --> 216.95.249.22 /public_html/tourguide/x2023 slide1.htm
2008.02.14 17:48 B C:\Users\Allison\Desktop\Funding Matters\UCCC\UCCC Web\From Ronald\UCCC_New\tourguide\x2023\slide10.htm --> 216.95.249.22 /public_html/tourguide/x2023 slide10.htm
2008.02.14 17:48 B C:\Users\Allison\Desktop\Funding Matters\UCCC\UCCC Web\From Ronald\UCCC_New\tourguide\x2023\slide11.htm --> 216.95.249.22 /public_html/tourguide/x2023 slide11.htm
2008.02.14 17:48 B C:\Users\Allison\Desktop\Funding Matters\UCCC\UCCC Web\From Ronald\UCCC_New\tourguide\x2023\slide12.htm --> 216.95.249.22 /public_html/tourguide/x2023 slide12.htm
2008.02.14 17:48 B C:\Users\Allison\Desktop\Funding Matters\UCCC\UCCC Web\From Ronald\UCCC_New\tourguide\x2023\slide13.htm --> 216.95.249.22 /public_html/tourguide/x2023 slide13.htm
2008.02.14 17:48 B C:\Users\Allison\Desktop\Funding Matters\UCCC\UCCC Web\From Ronald\UCCC_New\tourguide\x2023\slide14.htm --> 216.95.249.22 /public_html/tourguide/x2023 slide14.htm
2008.02.14 17:48 B C:\Users\Allison\Desktop\Funding Matters\UCCC\UCCC Web\From Ronald\UCCC_New\tourguide\x2023\slide15.htm --> 216.95.249.22 /public_html/tourguide/x2023 slide15.htm
2008.02.14 17:48 B C:\Users\Allison\Desktop\Funding Matters\UCCC\UCCC Web\From Ronald\UCCC_New\tourguide\x2023\slide16.htm --> 216.95.249.22 /public_html/tourguide/x2023 slide16.htm
2008.02.14 17:48 B C:\Users\Allison\Desktop\Funding Matters\UCCC\UCCC Web\From Ronald\UCCC_New\tourguide\x2023\slide17.htm --> 216.95.249.22 /public_html/tourguide/x2023 slide17.htm
2008.02.14 17:48 B C:\Users\Allison\Desktop\Funding Matters\UCCC\UCCC Web\From Ronald\UCCC_New\tourguide\x2023\slide18.htm --> 216.95.249.22 /public_html/tourguide/x2023 slide18.htm
2008.02.14 17:48 B C:\Users\Allison\Desktop\Funding Matters\UCCC\UCCC Web\From Ronald\UCCC_New\tourguide\x2023\slide19.htm --> 216.95.249.22 /public_html/tourguide/x2023 slide19.htm
2008.02.14 17:48 B C:\Users\Allison\Desktop\Funding Matters\UCCC\UCCC Web\From Ronald\UCCC_New\tourguide\x2023\slide2.htm --> 216.95.249.22 /public_html/tourguide/x2023 slide2.htm
2008.02.14 17:48 B C:\Users\Allison\Desktop\Funding Matters\UCCC\UCCC Web\From Ronald\UCCC_New\tourguide\x2023\slide20.htm --> 216.95.249.22 /public_html/tourguide/x2023 slide20.htm
2008.02.14 17:48 B C:\Users\Allison\Desktop\Funding Matters\UCCC\UCCC Web\From Ronald\UCCC_New\tourguide\x2023\slide21.htm --> 216.95.249.22 /public_html/tourguide/x2023 slide21.htm
2008.02.14 17:48 B C:\Users\Allison\Desktop\Funding Matters\UCCC\UCCC Web\From Ronald\UCCC_New\tourguide\x2023\slide22.htm --> 216.95.249.22 /public_html/tourguide/x2023 slide22.htm
2008.02.14 17:48 B C:\Users\Allison\Desktop\Funding Matters\UCCC\UCCC Web\From Ronald\UCCC_New\tourguide\x2023\slide23.htm --> 216.95.249.22 /public_html/tourguide/x2023 slide23.htm
2008.02.14 17:48 B C:\Users\Allison\Desktop\Funding Matters\UCCC\UCCC Web\From Ronald\UCCC_New\tourguide\x2023\slide24.htm --> 216.95.249.22 /public_html/tourguide/x2023 slide24.htm
2008.02.14 17:48 B C:\Users\Allison\Desktop\Funding Matters\UCCC\UCCC Web\From Ronald\UCCC_New\tourguide\x2023\slide25.htm --> 216.95.249.22 /public_html/tourguide/x2023 slide25.htm
2008.02.14 17:48 B C:\Users\Allison\Desktop\Funding Matters\UCCC\UCCC Web\From Ronald\UCCC_New\tourguide\x2023\slide26.htm --> 216.95.249.22 /public_html/tourguide/x2023 slide26.htm
2008.02.14 17:48 B C:\Users\Allison\Desktop\Funding Matters\UCCC\UCCC Web\From Ronald\UCCC_New\tourguide\x2023\slide27.htm --> 216.95.249.22 /public_html/tourguide/x2023 slide27.htm
2008.02.14 17:48 B C:\Users\Allison\Desktop\Funding Matters\UCCC\UCCC Web\From Ronald\UCCC_New\tourguide\x2023\slide28.htm --> 216.95.249.22 /public_html/tourguide/x2023 slide28.htm
2008.02.14 17:48 B C:\Users\Allison\Desktop\Funding Matters\UCCC\UCCC Web\From Ronald\UCCC_New\tourguide\x2023\slide29.htm --> 216.95.249.22 /public_html/tourguide/x2023 slide29.htm
2008.02.14 17:48 B C:\Users\Allison\Desktop\Funding Matters\UCCC\UCCC Web\From Ronald\UCCC_New\tourguide\x2023\slide3.htm --> 216.95.249.22 /public_html/tourguide/x2023 slide3.htm
2008.02.14 17:48 B C:\Users\Allison\Desktop\Funding Matters\UCCC\UCCC Web\From Ronald\UCCC_New\tourguide\x2023\slide30.htm --> 216.95.249.22 /public_html/tourguide/x2023 slide30.htm
2008.02.14 17:48 B C:\Users\Allison\Desktop\Funding Matters\UCCC\UCCC Web\From Ronald\UCCC_New\tourguide\x2023\slide31.htm --> 216.95.249.22 /public_html/tourguide/x2023 slide31.htm
2008.02.14 17:48 B C:\Users\Allison\Desktop\Funding Matters\UCCC\UCCC Web\From Ronald\UCCC_New\tourguide\x2023\slide32.htm --> 216.95.249.22 /public_html/tourguide/x2023 slide32.htm
2008.02.14 17:48 B C:\Users\Allison\Desktop\Funding Matters\UCCC\UCCC Web\From Ronald\UCCC_New\tourguide\x2023\slide33.htm --> 216.95.249.22 /public_html/tourguide/x2023 slide33.htm
2008.02.14 17:48 B C:\Users\Allison\Desktop\Funding Matters\UCCC\UCCC Web\From Ronald\UCCC_New\tourguide\x2023\slide34.htm --> 216.95.249.22 /public_html/tourguide/x2023 slide34.htm
2008.02.14 17:48 B C:\Users\Allison\Desktop\Funding Matters\UCCC\UCCC Web\From Ronald\UCCC_New\tourguide\x2023\slide35.htm --> 216.95.249.22 /public_html/tourguide/x2023 slide35.htm
2008.02.14 17:48 B C:\Users\Allison\Desktop\Funding Matters\UCCC\UCCC Web\From Ronald\UCCC_New\tourguide\x2023\slide36.htm --> 216.95.249.22 /public_html/tourguide/x2023 slide36.htm
2008.02.14 17:48 B C:\Users\Allison\Desktop\Funding Matters\UCCC\UCCC Web\From Ronald\UCCC_New\tourguide\x2023\slide37.htm --> 216.95.249.22 /public_html/tourguide/x2023 slide37.htm
2008.02.14 17:48 B C:\Users\Allison\Desktop\Funding Matters\UCCC\UCCC Web\From Ronald\UCCC_New\tourguide\x2023\slide38.htm --> 216.95.249.22 /public_html/tourguide/x2023 slide38.htm
2008.02.14 17:48 B C:\Users\Allison\Desktop\Funding Matters\UCCC\UCCC Web\From Ronald\UCCC_New\tourguide\x2023\slide39.htm --> 216.95.249.22 /public_html/tourguide/x2023 slide39.htm
2008.02.14 17:48 B C:\Users\Allison\Desktop\Funding Matters\UCCC\UCCC Web\From Ronald\UCCC_New\tourguide\x2023\slide4.htm --> 216.95.249.22 /public_html/tourguide/x2023 slide4.htm
2008.02.14 17:48 B C:\Users\Allison\Desktop\Funding Matters\UCCC\UCCC Web\From Ronald\UCCC_New\tourguide\x2023\slide40.htm --> 216.95.249.22 /public_html/tourguide/x2023 slide40.htm
2008.02.14 17:48 B C:\Users\Allison\Desktop\Funding Matters\UCCC\UCCC Web\From Ronald\UCCC_New\tourguide\x2023\slide41.htm --> 216.95.249.22 /public_html/tourguide/x2023 slide41.htm
2008.02.14 17:48 B C:\Users\Allison\Desktop\Funding Matters\UCCC\UCCC Web\From Ronald\UCCC_New\tourguide\x2023\slide42.htm --> 216.95.249.22 /public_html/tourguide/x2023 slide42.htm
2008.02.14 17:48 B C:\Users\Allison\Desktop\Funding Matters\UCCC\UCCC Web\From Ronald\UCCC_New\tourguide\x2023\slide43.htm --> 216.95.249.22 /public_html/tourguide/x2023 slide43.htm
2008.02.14 17:48 B C:\Users\Allison\Desktop\Funding Matters\UCCC\UCCC Web\From Ronald\UCCC_New\tourguide\x2023\slide44.htm --> 216.95.249.22 /public_html/tourguide/x2023 slide44.htm
2008.02.14 17:48 B C:\Users\Allison\Desktop\Funding Matters\UCCC\UCCC Web\From Ronald\UCCC_New\tourguide\x2023\slide45.htm --> 216.95.249.22 /public_html/tourguide/x2023 slide45.htm
2008.02.14 17:48 B C:\Users\Allison\Desktop\Funding Matters\UCCC\UCCC Web\From Ronald\UCCC_New\tourguide\x2023\slide46.htm --> 216.95.249.22 /public_html/tourguide/x2023 slide46.htm
2008.02.14 17:48 B C:\Users\Allison\Desktop\Funding Matters\UCCC\UCCC Web\From Ronald\UCCC_New\tourguide\x2023\slide47.htm --> 216.95.249.22 /public_html/tourguide/x2023 slide47.htm
2008.02.14 17:48 B C:\Users\Allison\Desktop\Funding Matters\UCCC\UCCC Web\From Ronald\UCCC_New\tourguide\x2023\slide48.htm --> 216.95.249.22 /public_html/tourguide/x2023 slide48.htm
2008.02.14 17:48 B C:\Users\Allison\Desktop\Funding Matters\UCCC\UCCC Web\From Ronald\UCCC_New\tourguide\x2023\slide49.htm --> 216.95.249.22 /public_html/tourguide/x2023 slide49.htm
2008.02.14 17:48 B C:\Users\Allison\Desktop\Funding Matters\UCCC\UCCC Web\From Ronald\UCCC_New\tourguide\x2023\slide5.htm --> 216.95.249.22 /public_html/tourguide/x2023 slide5.htm
2008.02.14 17:48 B C:\Users\Allison\Desktop\Funding Matters\UCCC\UCCC Web\From Ronald\UCCC_New\tourguide\x2023\slide50.htm --> 216.95.249.22 /public_html/tourguide/x2023 slide50.htm
2008.02.14 17:48 B C:\Users\Allison\Desktop\Funding Matters\UCCC\UCCC Web\From Ronald\UCCC_New\tourguide\x2023\slide6.htm --> 216.95.249.22 /public_html/tourguide/x2023 slide6.htm
2008.02.14 17:48 B C:\Users\Allison\Desktop\Funding Matters\UCCC\UCCC Web\From Ronald\UCCC_New\tourguide\x2023\slide7.htm --> 216.95.249.22 /public_html/tourguide/x2023 slide7.htm
2008.02.14 17:48 B C:\Users\Allison\Desktop\Funding Matters\UCCC\UCCC Web\From Ronald\UCCC_New\tourguide\x2023\slide8.htm --> 216.95.249.22 /public_html/tourguide/x2023 slide8.htm
2008.02.14 17:48 B C:\Users\Allison\Desktop\Funding Matters\UCCC\UCCC Web\From Ronald\UCCC_New\tourguide\x2023\slide9.htm --> 216.95.249.22 /public_html/tourguide/x2023 slide9.htm
2008.02.14 17:48 B C:\Users\Allison\Desktop\Funding Matters\UCCC\UCCC Web\From Ronald\UCCC_New\tourguide\x2023\stop.htm --> 216.95.249.22 /public_html/tourguide/x2023 stop.htm
2008.02.14 17:48 B C:\Users\Allison\Desktop\Funding Matters\UCCC\UCCC Web\From Ronald\UCCC_New\tourguide\x2023\thecareguide.jpg --> 216.95.249.22 /public_html/tourguide/x2023 thecareguide.jpg
2008.02.14 17:48 B C:\Users\Allison\Desktop\Funding Matters\UCCC\UCCC Web\From Ronald\UCCC_New\tourguide\x2023\thecareguide1.jpg --> 216.95.249.22 /public_html/tourguide/x2023 thecareguide1.jpg
